…
<!-- -->

    titles <- c("Twenty Thousand Leagues under the Sea", 
                "The War of the Worlds",
                "Pride and Prejudice", 
                "Great Expectations")
    books <- gutenberg_works(title %in% titles) %>%
      gutenberg_download(meta_fields = "title")
    books

    ## # A tibble: 53,724 × 3
    ##    gutenberg_id text                    title                
    ##           <int> <chr>                   <chr>                
    ##  1           36 "cover "                The War of the Worlds
    ##  2           36 ""                      The War of the Worlds
    ##  3           36 ""                      The War of the Worlds
    ##  4           36 ""                      The War of the Worlds
    ##  5           36 ""                      The War of the Worlds
    ##  6           36 "The War of the Worlds" The War of the Worlds
    ##  7           36 ""                      The War of the Worlds
    ##  8           36 "by H. G. Wells"        The War of the Worlds
    ##  9           36 ""                      The War of the Worlds
    ## 10           36 ""                      The War of the Worlds
    ## # … with 53,714 more rows
…
<!-- -->

    word_counts <- by_chapter %>%
      unnest_tokens(word, text) %>%
      anti_join(stop_words) %>%
      count(document, word) # shortcut for group_by(document, word) %>% summarise(n = n())

    word_counts

    ## # A tibble: 101,279 × 3
    ##    document               word             n
    ##    <chr>                  <chr>        <int>
    ##  1 Great Expectations_0   1867             1
    ##  2 Great Expectations_0   charles          1
    ##  3 Great Expectations_0   contents         1
    ##  4 Great Expectations_0   dickens          1
    ##  5 Great Expectations_0   edition          1
    ##  6 Great Expectations_0   expectations     1
    ##  7 Great Expectations_0   illustration     1
    ##  8 Great Expectations_100 age              1
    ##  9 Great Expectations_100 arose            1
    ## 10 Great Expectations_100 barnard’s        1
    ## # … with 101,269 more rows
…
    topics <- tidy(chapters_lda, matrix = "beta")
    memberships <- tidy(chapters_lda, matrix = "gamma")

1.  This tidy approach is preferable to extracting the parameters
    directly from the fitted model (e.g., using `chapters_lda@gamma`)
    because it ensures the output is a tidy data.frame, rather than a
    matrix. Tidy data.frames are easier to visualize using ggplot2.

<!-- -->

    # highest weight words per topic
    topics %>%
      arrange(topic, -beta)

    ## # A tibble: 74,976 × 3
    ##    topic term          beta
    ##    <int> <chr>        <dbl>
    ##  1     1 captain    0.0154 
    ##  2     1 _nautilus_ 0.0127 
    ##  3     1 sea        0.00911
    ##  4     1 nemo       0.00873
    ##  5     1 ned        0.00798
    ##  6     1 conseil    0.00683
    ##  7     1 water      0.00624
    ##  8     1 land       0.00605
    ##  9     1 sir        0.00486
    ## 10     1 feet       0.00373
    ## # … with 74,966 more rows

    # topic memberships per document
    memberships %>%
      arrange(document, topic)

    ## # A tibble: 780 × 3
    ##    document               topic     gamma
    ##    <chr>                  <int>     <dbl>
    ##  1 Great Expectations_0       1 0.00402  
    ##  2 Great Expectations_0       2 0.988    
    ##  3 Great Expectations_0       3 0.00402  
    ##  4 Great Expectations_0       4 0.00402  
    ##  5 Great Expectations_100     1 0.000607 
    ##  6 Great Expectations_100     2 0.000607 
    ##  7 Great Expectations_100     3 0.603    
    ##  8 Great Expectations_100     4 0.396    
    ##  9 Great Expectations_101     1 0.0000201
    ## 10 Great Expectations_101     2 0.0000201
    ## # … with 770 more rows
