…
1.  We can cut the tree to recover a standard clustering. This is where
    the grammar-of-graphics approach from ggraph becomes useful – we can
    encode the cluster membership of a movie using color, for example.

<!-- -->

    cluster_df <- cutree(hclust_result, k = 10) %>% # try changing K and regenerating the graph below
      tibble(label = names(.), cluster = as.factor(.))
    cluster_df

    ## # A tibble: 50 × 3
    ##        . label                cluster
    ##    <int> <chr>                <fct>  
    ##  1     1 Seven (a.k.a. Se7en) 1      
    ##  2     1 Usual Suspects, The  1      
    ##  3     2 Braveheart           2      
    ##  4     2 Apollo 13            2      
    ##  5     3 Pulp Fiction         3      
    ##  6     4 Forrest Gump         4      
    ##  7     2 Lion King, The       2      
    ##  8     2 Mask, The            2      
    ##  9     2 Speed                2      
    ## 10     2 Fugitive, The        2      
    ## # … with 40 more rows
…
