…
<!-- -->

    kclust <- movie_mat %>%
      select(-title) %>%
      kmeans(centers = 10)

    movie_mat <- augment(kclust, movie_mat) # creates column ".cluster" with cluster label
    kclust <- tidy(kclust)

    movie_mat %>%
      select(title, .cluster) %>%
      arrange(.cluster)

    ## # A tibble: 50 × 2
    ##    title                                              .cluster
    ##    <chr>                                              <fct>   
    ##  1 Lord of the Rings: The Return of the King, The     1       
    ##  2 Lord of the Rings: The Two Towers, The             1       
    ##  3 Lord of the Rings: The Fellowship of the Ring, The 1       
    ##  4 Seven (a.k.a. Se7en)                               2       
    ##  5 Usual Suspects, The                                2       
    ##  6 Schindler's List                                   2       
    ##  7 Toy Story                                          3       
    ##  8 Independence Day (a.k.a. ID4)                      3       
    ##  9 Twelve Monkeys (a.k.a. 12 Monkeys)                 3       
    ## 10 Mission: Impossible                                3       
    ## # … with 40 more rows
…
